…
``` r
# get forecast
forecast <- get_forecast("London", units = "metric") %>%
  owmr_as_tibble()

forecast[, 1:6]
```

    ## # A tibble: 40 x 6
    ##    dt_txt               temp pressure humidity temp_min temp_max
    ##    <chr>               <dbl>    <dbl>    <dbl>    <dbl>    <dbl>
    ##  1 2018-10-28 21:00:00  2.76    1023.       71     2.76     4.22
    ##  2 2018-10-29 00:00:00  1.64    1021.       90     1.64     2.73
    ##  3 2018-10-29 03:00:00  2.54    1019.       99     2.54     3.27
    ##  4 2018-10-29 06:00:00  1.64    1018.       94     1.64     2   
    ##  5 2018-10-29 09:00:00  4.65    1016.       84     4.65     4.65
    ##  6 2018-10-29 12:00:00  8.44    1013.       77     8.44     8.44
    ##  7 2018-10-29 15:00:00  8.47    1010.       70     8.47     8.47
    ##  8 2018-10-29 18:00:00  5.96    1008.       76     5.96     5.96
    ##  9 2018-10-29 21:00:00  3.57    1005.       87     3.57     3.57
    ## 10 2018-10-30 00:00:00  3.07    1003.       97     3.07     3.07
    ## # ... with 30 more rows
…
